Générer un rapport d’analyses • firstlib
…
# Création du dataframe de la commune de Nantes
df_Nantes <- donnees_elus[donnees_elus$Libellé_de_la_commune == "Nantes",]

# Création du dataframe du département de la Loire-Atlantique
df_Loire_Atlantique <- donnees_elus[donnees_elus$Libellé_du_département == "Loire-Atlantique",]

# Affectation des classes `commune` et `departement` respectives à chaque dataframe
library(firstlib)
creer_commune(df_Nantes)
#> # A tibble: 66 × 16
#>    Code_du_département Libellé_du_département Code_de_la_collectivité_à_statut…¹
#>    <chr>               <chr>                                               <dbl>
#>  1 44                  Loire-Atlantique                                       NA
#>  2 44                  Loire-Atlantique                                       NA
#>  3 44                  Loire-Atlantique                                       NA
#>  4 44                  Loire-Atlantique                                       NA
#>  5 44                  Loire-Atlantique                                       NA
#>  6 44                  Loire-Atlantique                                       NA
#>  7 44                  Loire-Atlantique                                       NA
#>  8 44                  Loire-Atlantique                                       NA
#>  9 44                  Loire-Atlantique                                       NA
#> 10 44                  Loire-Atlantique                                       NA
#> # ℹ 56 more rows
#> # ℹ abbreviated name: ¹​Code_de_la_collectivité_à_statut_particulier
#> # ℹ 13 more variables: Libellé_de_la_collectivité_à_statut_particulier <chr>,
#> #   Code_de_la_commune <chr>, Libellé_de_la_commune <chr>, Nom_de_l_élu <chr>,
#> #   Prénom_de_l_élu <chr>, Code_sexe <chr>, Date_de_naissance <chr>,
#> #   Code_de_la_catégorie_socio_professionnelle <dbl>,
#> #   Libellé_de_la_catégorie_socio_professionnelle <chr>, …
creer_commune(df_Loire_Atlantique)
#> # A tibble: 8,123 × 16
#>    Code_du_département Libellé_du_département Code_de_la_collectivité_à_statut…¹
#>    <chr>               <chr>                                               <dbl>
#>  1 44                  Loire-Atlantique                                       NA
#>  2 44                  Loire-Atlantique                                       NA
#>  3 44                  Loire-Atlantique                                       NA
#>  4 44                  Loire-Atlantique                                       NA
#>  5 44                  Loire-Atlantique                                       NA
#>  6 44                  Loire-Atlantique                                       NA
#>  7 44                  Loire-Atlantique                                       NA
#>  8 44                  Loire-Atlantique                                       NA
#>  9 44                  Loire-Atlantique                                       NA
#> 10 44                  Loire-Atlantique                                       NA
#> # ℹ 8,113 more rows
#> # ℹ abbreviated name: ¹​Code_de_la_collectivité_à_statut_particulier
#> # ℹ 13 more variables: Libellé_de_la_collectivité_à_statut_particulier <chr>,
#> #   Code_de_la_commune <chr>, Libellé_de_la_commune <chr>, Nom_de_l_élu <chr>,
#> #   Prénom_de_l_élu <chr>, Code_sexe <chr>, Date_de_naissance <chr>,
#> #   Code_de_la_catégorie_socio_professionnelle <dbl>,
#> #   Libellé_de_la_catégorie_socio_professionnelle <chr>, …
…
